README file for the file 32180438-assign02-q3-1-a.cpp

1. Project Title
COS 4861 ASSIGNMENT 2 UNIQUE NUMBER 843929 QUESTION 3-1-a
The program is contained in the file: 32180438-assign02-q3-1-a.cpp


2. Prerequisites

This program is written in C++.


3. Running the tests
The program requests a file name for the training data which will be used to generate the hypothesized tagging model.

A typical output of the program at this stage is as follows:

Enter the file name and path for the training data : 
/users/shared/pos_tagged.txt

By using this file the program will compute p*(t|w) = argmax_t_p(t|w).The output of the program at this stage is typically as follows:
*Please note that program data has been formatted for readability

Enter the file name and path for the output file : 
/users/shared/pos_test_result.txt

                 word tag	P*(t|Wn-1)
                 ---- ---	-----------
                    $1 nn		1
               $1,800 nns		1
                 $1.1 nns		1
                 $1.4 nns		1
                 $1.5 nns		1
                $12.7 nns		1
                $17.8 nns		1
                  $18 nns		1
                $18.2 nns		1
                $18.9 nns		1
               $2,700 nns		1
                $39.5 nns		1
                 $600 nns		1
                 $639 nns		1
                 $700 nns		1
                    '' ''		0.5
                      ( (		0.5
                      ) )		0.5
                      , ,		0.497297
                    -- --		0.5
                      . .		0.483333
                     1 cd		1
                    1% nn		1
                    10 cd		1
                   10% nn		1
                  129% nn		1
                   13% nn		1
                   14% nn		1
               1910-14 cd		1
                  1934 cd		1
               1947-49 cd		1
                  1953 cd		1
                  1958 cd		1
                  1959 cd		1
                  1960 cd		1
               1960's cd$		1
                  1961 cd		1
                     2 cd		1
                    2% nn		1
                 2,418 cd		1
                  2.5% nn		1
                    20 cd		1
                   20% nn		1
                    21 cd		1
                  237% nn		1
                  242% nn		1
                   25% nn		1
                    5% nn		1
                   50% nn		1
                   869 cd		1
                      : :		0.5
                      ; .		1
                     A at		1
             Adjusted vbn		1
  Administration's nn$-tl		1
        Agriculture nn-tl		1
              Although cs		1
                 Among in		1
           Appeals nns-tl		1
                 April np		1
                August np		1
                Before in		1
                   Bob np		1
                  Case np		1
            Central jj-tl		1
            Charitable jj		1
            Circuit nn-tl		1
               City nn-tl		1
                Co. nn-tl		1
              Colorado np		1
           Commerce nn-tl		1
              Congress np		1
              Consumer nn		1
              Corps nn-tl		1
              Court nn-tl		1
                    D. np		1
                Day nn-tl		1
         Dealers' nns$-hl		1
                Denver np		1
         Department nn-tl		1
                Easter np		1
                Ehlers np		1
             Elburn np-hl		1
                Except in		1
                  Farm nn		1
              Farmers nns		1
            Federal jj-tl		1
               Fields nns		1
                   For in		1
               Ford np-tl		1
         Government nn-tl		1
      Government's nn$-tl		1
                   Gus np		1
          Harvester np-tl		1
               High jj-tl		1
                  Hill np		1
               Hiring vbg		1
                 Houtz np		1
                    I. np		1
                I.R.S. np		1
               Ill. np-hl		1
                    In in		1
      International jj-tl		1
                  Iowa np		1
                   It pps		1
                    J. np		1
                  Jack np		1
               January np		1
                  John np		1
                  July np		1
                Keeler np		1
               Kennedy np		1
              Labor nn-tl		1
                  Last ap		1
             Louisiana np		1
              Ltd. vbn-tl		1
                 March np		1
                  Mark np		1
                Martin np		1
       Massey-Ferguson np		1
               Merritt np		1
                  More ap		1
              Motor nn-tl		1
                   Mr. np		1
                   My pp$		1
                Nearly rb		1
                   Net nn		1
              Ninth od-tl		1
              North jj-tl		1
                    Not *		1
                One cd-tl		1
                  Page nn		1
         Paradoxically rb		1
              Peace nn-tl		1
              Possible jj		1
          President nn-tl		1
                 Price nn		1
             Requests nns		1
            Revenue nn-tl		1
           Security nn-tl		1
             September np		1
            Service nn-tl		1
                 Seven cd		1
                  She pps		1
                Sioux nps		1
             Social jj-tl		1
               Staiger np		1
                 State nn		1
                  Such jj		1
            Supreme jj-tl		1
                Tax nn-tl		1
                   The at		1
                  This dt		1
                Though cs		1
               Toronto np		1
                 Total nn		1
               Tractor nn		1
                Two cd-hl		1
                  U.S. np		1
                    V. np		1
               Voters nns		1
            Washington np		0.5
                  We ppss		1
            We've ppss+hv		1
                  With in		1
                    `` ``		0.5
                     a at		1
                aboard in		1
                 about rb		1
                 above in		1
             absorbed vbn		1
               account nn		1
                  acre nn		1
               acreage nn		1
              addition nn		1
            additional jj		1
           adjourning vbg		1
             adjusted vbn		1
            adjustment nn		1
              adopted vbn		1
           advertising nn		1
              affects nns		1
                afford vb		1
                 after cs		1
                agency nn		1
                   ago rb		1
               aiding vbg		1
                  all abn		1
             allowance nn		1
           allowances nns		1
              allowed vbd		1
               allows vbz		1
                almost ql		1
                 alone rb		1
                  also rb		1
                amount nn		1
                    an at		1
                   and cc		1
            announced vbd		1
               another dt		1
                  any dti		1
           appliances nns		1
              applied vbd		1
                 apply vb		1
              approval nn		1
                  are ber		1
                  area nn		1
                areas nns		1
              aren't ber*		1
                around rb		1
           arrangement nn		1
                    as cs		0.866667
                 aside rb		1
               assets nns		1
              assured vbn		1
                    at in		0.0321101
            attachment nn		1
           authorized vbd		0.5
               average nn		1
            averaging vbg		1
                  back rb		1
                 bars vbz		1
             battered vbn		1
                    be be		0.5
               because cs		1
                before cs		0.5
                behind in		1
                being beg		1
               believe vb		1
                 below in		1
               benefit nn		1
             benefits nns		1
                beyond in		1
                  bill nn		1
               billion cd		1
                boats nns		1
            bordering vbg		1
                 both abx		1
                 brick nn		1
               briefs nns		1
              business nn		1
                   but cc		1
                   buy vb		1
                buying nn		1
                    by in		1
                 cadet nn		1
               called vbn		1
                calls nns		1
                   can md		1
               cannot md*		1
                  case nn		1
                cases nns		1
                  cash nn		1
               certain jj		1
                 chair nn		1
           challenges vbz		1
                 chart nn		1
              checked vbn		1
            chemicals nns		1
               chiefly rb		1
                 claim nn		1
              claimed vbd		1
               claims nns		1
                  clay nn		1
           clay-mining nn		1
                client nn		1
              climbed vbd		1
             climbing vbg		1
               closer jjr		1
            collected vbd		1
             collects vbz		1
                  come vb		1
               coming vbg		1
           commenting vbg		1
             community nn		1
            companies nns		1
               company nn		1
            company's nn$		1
            comparable jj		1
             compared vbn		1
            competitor nn		1
             computed vbn		1
            connection nn		1
             conscious jj		1
           consecutive jj		1
              consumer nn		1
           containing vbg		1
            contention nn		1
            contested vbn		1
          contribution nn		1
        contributions nns		1
             controls vbz		1
                  corn nn		1
             corporate jj		1
           corporation nn		1
         corporations nns		1
                  cost nn		1
                 could md		1
             counties nns		1
            country's nn$		1
                course nn		1
                 court nn		1
              coverage nn		1
             creating vbg		1
                  crop nn		1
                crops nns		1
                  cut vbd		1
               cutback nn		1
                 daily rb		1
                  date nn		1
                dates nns		1
                dealer nn		1
              dealers nns		1
              decision nn		1
               declare vb		1
               decline vb		1
             deducted vbd		1
         deductibility nn		1
            deductible jj		1
             deduction nn		1
           deductions nns		1
              delivery nn		1
                demand nn		1
            demanding vbg		1
               denied vbn		1
                 dense jj		1
                  deny vb		1
             depletion nn		1
             designed vbn		1
                  did dod		1
           disallowed vbd		1
        discriminatory jj		1
             disposed vbn		1
        distributions nns		1
            divulging vbg		1
                 does doz		1
                doing vbg		1
                 donor nn		1
                double jj		1
                  down rp		0.666667
              dropped vbd		1
        drought-seared jj		1
                   due jj		1
                during in		1
                  each dt		1
                 eager jj		1
              earlier rbr		0.75
                 early jj		1
             earnings nns		1
              economic jj		1
           economists nns		1
                edged vbd		1
           efficiently rb		1
              efforts nns		1
                 eight cd		1
             employed vbn		1
             employes nns		1
             enactment nn		1
                ended vbn		1
              entirety nn		1
             entities nns		1
             entitled vbn		1
                 equal jj		1
             equipment nn		1
            especially rb		1
         establishing vbg		1
              estimate nn		0.5
            estimated vbn		1
                 event nn		1
               exactly ql		1
               example nn		1
             exception nn		1
           exceptions nns		1
                excess nn		1
             excessive jj		1
                excise nn		1
                exempt jj		1
             expected vbn		1
               expense nn		1
             expenses nns		1
         experiencing vbg		1
              experts nns		1
               explain vb		1
              extends vbz		1
                 extra jj		1
              factors nns		1
                  farm nn		1
                farmer nn		1
              farmers nns		1
            farmers' nns$		1
                farms nns		1
                  feed nn		1
                 felt vbn		1
            fertilizer nn		1
                   few ap		1
                figure nn		1
             figuring vbg		1
               filing vbg		1
                 final jj		1
               finding nn		1
             finished vbn		1
                  firm nn		1
                   for in		0.966667
               forced vbn		1
             forecast vbn		1
                  form nn		1
                  four cd		1
                fourth od		1
              frequent jj		1
                  from in		1
                  full jj		1
               furnish vb		1
                  gain nn		1
                gains nns		0.75
              gasoline nn		1
             generally rb		1
                   get vb		1
              getting vbg		1
                given vbn		1
                  good jj		1
                 grain nn		1
                 gross nn		1
                ground nn		1
                 group nn		1
                  had hvd		1
             haggling vbg		1
                  hand vb		1
                handle vb		1
                hands nns		1
           harvesting vbg		1
                  has hvz		1
                  have hv		1
                   he pps		1
                 held vbd		1
                  help nn		1
                  her pp$		0.6
                  high jj		0.5
               higher jjr		0.833333
              highest jjt		1
                  him ppo		1
                  his pp$		1
                 hitch nn		1
                  home nr		1
        household-type jj		1
              however wrb		1
               husband nn		1
              identity nn		1
             immediate jj		1
           immediately rb		1
                impact nn		1
           implements nns		1
            imposition nn		1
           improvement nn		1
                    in in		0.139466
             incentive nn		1
             inclined vbn		1
                income nn		1
            increases nns		1
             incurred vbn		1
                 index nn		1
            indicated vbd		1
            individual jj		1
           industries nns		1
              industry nn		1
              instance nn		1
                  into in		1
          inventories nns		1
             invoices nns		1
             invoking vbg		1
             involved vbn		1
                   is bez		1
                 issue nn		1
                   it ppo		0.5
                  its pp$		1
               itself ppl		1
                   job nn		1
              judgment nn		1
                  just rb		1
                  keep vb		1
              kerosene nn		1
            kickbacks nns		1
               kicked vbd		1
                   lag vb		1
               lagged vbn		1
                 large jj		1
                  last ap		1
                  late jj		1
                latter ap		1
                   law nn		1
           legislation nn		1
                 less rbr		1
                 level nn		1
               levels nns		1
                  like jj		1
              limited vbd		1
                  line nn		1
                lines nns		1
           liquidation nn		1
         liquidations nns		1
                  live vb		1
                loans nns		1
                   low nn		1
                lower jjr		1
               lowest jjt		1
               machine nn		1
             machinery nn		1
             machines nns		1
                 made vbn		1
                 major jj		1
                  make vb		1
               making vbg		1
               manager nn		1
        manufacturers nns		1
      manufacturers' nns$		1
                  many ap		1
                market nn		1
           marketings nns		1
              material nn		1
            materials nns		1
                   may md		1
               measure nn		1
              mid-1960 cd		1
              mid-July np		1
         mid-September np		1
                 might md		1
               million cd		1
                mined vbd		1
               mineral nn		1
                 model nn		1
                 money nn		1
                 month nn		1
               months nns		1
              morality nn		1
                  more ap		1
               morning nn		1
                  most ap		0.5
                motion nn		1
               moving vbg		1
                  much ap		1
                  must md		1
                   my pp$		1
             nation's nn$		1
                nearly rb		1
                  need nn		1
                   new jj		1
                  next ap		1
                    no at		1
            non-profit jj		1
                    not *		1
               notable jj		1
                  note vb		1
            occupation nn		1
                    of in		0.969231
            officially rb		1
            officials nns		1
                   oil nn		1
                   old jj		1
                older jjr		1
                    on in		0.952381
                one's pn$		1
                  only rb		1
              opposes vbz		1
                    or cc		1
                 order nn		1
               orders nns		1
          organization nn		1
                 other ap		1
                  our pp$		1
                   out in		0.5
                output nn		1
                  over in		1
                 owed vbd		1
                   own jj		0.5
                 owner nn		1
                   pad vb		1
                parent nn		1
                  part nn		1
          particulars nns		1
                  pass vb		1
               passed vbd		1
                   pay vb		0.666667
               payment nn		1
             payments nns		1
               pension nn		1
             pensions nns		1
               people nns		1
                   per in		1
            percentage nn		1
          percentages nns		1
                period nn		1
            permitted vbn		1
                picker nn		1
              pickers nns		1
                pickup nn		1
                  pipe nn		1
               pitfall nn		1
                  plan nn		1
              planted vbn		1
                 point nn		1
               points nns		1
              portable jj		1
              possible jj		1
              possibly rb		1
            pre-Easter jj		1
             precedent nn		1
             president nn		1
                 price nn		1
               prices nns		1
            prior-year nn		1
           privileges nns		1
              probably rb		1
            producers nns		1
            production nn		1
             products nns		1
              profits nns		1
               program nn		1
              property nn		1
            prospects nns		1
               provide vb		1
             provided vbn		1
             provides vbz		1
              province nn		1
             provision nn		1
                public jj		1
              purchase vb		1
               purpose nn		1
               pushed vbn		1
              pushing vbg		1
           questioned vbn		1
               railing nn		1
                 range nn		1
              ranging vbg		1
                  rate nn		1
                rather in		1
                   raw jj		1
                 reach vb		1
              reached vbd		1
             reaching vbg		1
              reaction nn		1
             realized vbd		1
                realty nn		1
             receipts nns		1
             received vbn		0.571429
                recent jj		1
             recipient nn		1
                record nn		1
              recovery nn		1
              reduced vbd		0.5
             regarded vbd		0.5
             rejected vbd		1
            relations nns		1
            relatively ql		1
                relief nn		1
              removed vbn		1
                report vb		0.666667
             reported vbd		1
              reports vbz		1
                result nn		1
             resulted vbd		0.5
                retail jj		1
                retain vb		1
            retirement nn		1
                return nn		1
              returns nns		1
               revenue nn		1
            revenuers nns		1
                review nn		1
                  rise nn		1
               rising vbg		1
                 rose vbd		1
                  rule nn		1
                ruled vbd		0.666667
                ruling nn		1
             ruling's nn$		1
              running vbg		1
                 rural jj		1
                 said vbd		0.833333
                  sale nn		1
                sales nns		1
                   say vb		1
                 says vbz		1
                 score nn		1
              scrutiny nn		1
              seasonal jj		1
            seasonally rb		1
             sections nns		1
                   see vb		1
                sells vbz		1
              separate jj		1
              serving vbg		1
                   set vb		0.5
                 seven cd		1
                 sewer nn		1
                 sharp jj		1
            shipments nns		1
             shipping vbg		1
            shortages nns		1
                should md		1
                  show nn		0.5
              showing vbg		1
                shown vbn		1
          significance nn		1
              signing vbg		1
               similar jj		1
                 since in		1
               sizable jj		1
                 slash vb		1
              slightly rb		0.666667
                    so ql		0.666667
             softened vbd		1
                 sold vbd		0.666667
                 some dti		1
                  sort nn		1
               special jj		1
            specified vbn		1
                 spend vb		1
              spending nn		1
                spouse nn		1
               spread vbn		1
                 start nn		1
             starting vbg		1
                 state nn		1
              state's nn$		1
             statement nn		1
               states nns		1
                status nn		1
                 steep jj		1
              stemmed vbd		1
                  step nn		1
            stepped-up jj		1
                 still rb		1
               stocks nns		0.5
               stores nns		1
             stressed vbd		1
               subject nn		1
            subsidiary nn		1
            subsidies nns		1
        substantiation nn		1
                  such jj		1
             supplies nns		1
               support nn		1
             supports nns		1
               supreme jj		1
                 surge nn		1
             suspects vbz		1
                takes vbz		1
                   tax nn		0.882353
             tax-aided jj		1
            tax-exempt jj		1
              tax-free jj		1
           tax-freedom nn		1
               taxable jj		1
                taxed vbn		1
                taxes nns		1
              taxpayer nn		1
           taxpayer's nn$		1
            taxpayers nns		1
                tells vbz		1
              tendency nn		1
           termination nn		1
            testified vbd		1
                  than cs		0.583333
                  that cs		0.647059
                   the at		1
                their pp$		1
                 them ppo		1
                  then rb		1
                 there ex		1
                these dts		1
                they ppss		1
         they're ppss+ber		1
                 third od		1
                  this dt		1
                those dts		1
                though cs		1
                 three cd		0.666667
               through in		1
              tickets nns		1
                  tile nn		1
                tilts vbz		1
                    to in		0.381818
              together rb		1
                 total vb		1
             tractors nns		1
               traded vbd		1
              trailed vbn		1
           transaction nn		1
               trucks nns		1
                  turn nn		0.5
                   two cd		1
              two-year jj		1
                 under in		1
                units nns		1
                    up rp		1
               upheld vbd		1
              upshots nns		1
               upswing nn		1
               uptrend nn		1
                upturn nn		1
                   use nn		1
                using vbg		1
                 value nn		1
                vessel nn		1
                  vice nn		1
                  view nn		1
               viewed vbn		1
                volume nn		1
           volunteers nns		1
              wanting vbg		1
                  warn vb		1
                 was bedz		1
                  we ppss		1
               weather nn		1
                  week nn		1
                weeks nns		1
                  well ql		0.5
                 were bed		1
                 what wdt		1
                 when wrb		1
                where wrb		1
                which wdt		1
                  who wps		1
          wholly-owned jj		1
            widespread jj		1
                  wife nn		1
                  will md		1
                   win vb		1
                winter nn		1
                  with in		1
                within in		1
               without in		1
                 worth jj		1
                 would md		1
             yardstick nn		1
                  year nn		1
         year-earlier jjr		1
              year-old jj		1
                years nns		1
               yields nns		1



4. Build With
 XCODE on Mac OS




